[
  {"name":"Devalion", "image":"p1", "type1":"Dragon", "type2":"Feu", "height":40, "weight": 10},
  {"name":"Herbizarre", "image":"p2", "type1":"Plante", "type2":"Poison", "height":40,"weight": 10},
  {"name":"Florizarre", "image":"p3", "type1":"Plante", "type2":"Poison", "height":40,"weight": 10},
  {"name":"Salamèche", "image":"p4", "type1":"Feu", "height":40,"weight": 10},
  {"name":"Bulbizarre", "image":"p1", "type1":"Plante", "type2":"Poison", "height":40,"weight": 10},
  {"name":"Herbizarre", "image":"p2", "type1":"Plante", "type2":"Poison", "height":40,"weight": 10},
  {"name":"Florizarre", "image":"p3", "type1":"Plante", "type2":"Poison", "height":40,"weight": 10},
  {"name":"Salamèche", "image":"p18", "type1":"Feu", "height":40,"weight": 10},
  {"name":"Bulbizarre", "image":"p1", "type1":"Plante", "type2":"Poison", "height":40,"weight": 10},
  {"name":"Herbizarre", "image":"p2", "type1":"Plante", "type2":"Poison", "height":40,"weight": 10},
  {"name":"Florizarre", "image":"p3", "type1":"Plante", "type2":"Poison", "height":40,"weight": 10},
  {"name":"Salamèche", "image":"p7", "type1":"Feu", "height":40,"weight": 10},
  {"name":"Bulbizarre", "image":"p1", "type1":"Plante", "type2":"Poison", "height":40,"weight": 10},
  {"name":"Herbizarre", "image":"p2", "type1":"Plante", "type2":"Poison", "height":40,"weight": 10},
  {"name":"Florizarre", "image":"p3", "type1":"Plante", "type2":"Poison", "height":40,"weight": 10},
  {"name":"Salamèche", "image":"p4", "type1":"Feu", "height":40,"weight": 10},
  {"name":"Bulbizarre", "image":"p1", "type1":"Plante", "type2":"Poison", "height":40,"weight": 10},
  {"name":"Herbizarre", "image":"p2", "type1":"Plante", "type2":"Poison", "height":40,"weight": 10},
  {"name":"Florizarre", "image":"p3", "type1":"Plante", "type2":"Poison", "height":40,"weight": 10},
  {"name":"Salamèche", "image":"p4", "type1":"Feu", "height":40,"weight": 10}

]